"id","city","company_name","title","url","is_valid_url","skills","contract_type","company_sector","user_experience","keyword","created_date","provider"
"995f4d013e2b3ffc04265e39892294ba","Paris la defense","EY","big-data-architect-h-f_paris-la-defense","https://www.welcometothejungle.co/companies/ey/jobs/big-data-architect-h-f_paris-la-defense",True,"Vous maîtrisez une ou plusieurs des technologies <em>BigData</em> et avez une expérience professionnelle d'au moins 3 ans dans ce domaine : <br /> Hadoop, Cloudera, SQL Server, Spark, Kafka, Cassandra, MESOS<br /> Outils de clustering et containers : Kubernetes, Docker, Ansible <br /> OS et Cloud : Linux, Azure/AWS, <br /> Base(s) de données NoSQL, SQL Server, Neo4j, Mongo DB, …<br /> Outils de visualisation des données (Kibana, PowerBI, …), <br /> Langages de programmation : Spark/Scala, Java, Python/PySpark, C/C++/C#.<br /> Ecole d'ingénieur ou Niveau Master ou expérience équivalente<br /> Anglais courant<br /> Être curieux, avoir une excellente culture technologie et un intérêt pour le développement d'architectures complexes dans un environnement complexe<br /> Être ouvert d'esprit et pouvoir collaborer sur des projets avec de multiples intervenants<br /> Esprit analytique, de synthèse et de rigueur, orienté résultat<br /> Les plus du Poste<br /> Un environnement à échelle humaine au sein d'un <em>Big</em> Four<br /> Une équipe dynamique et en pleine croissance<br /> Des enjeux techniques et métiers au cœur de l'activité de nos clients<br /> Missions auprès de grandes entreprises nationales et internationales<br /> Entrons ensemble dans l'ère de la révolution digitale et de la transformation des organisations ! La richesse de nos métiers, l'excellence de nos équipes, l'amplitude de nos réseaux, notre capacité à nous remettre en question, nos exigences élevées de qualité, notre éthique professionnelle, sont les fondements de notre réputation, le gage de nos futurs succès et de votre épanouissement professionnel. <br /> Vivez l'expérience EY Consulting, rejoignez-nous !<br /> EY est un employeur qui pratique l'égalité des chances.","Full-Time","Audit Strategy Transaction Services Digital Finance","0 years","big data","2019-10-14 09:44:51.597","wttj"
"e711b1db7e441c3a553c7b3465f00ad8","Paris 1er arrondissement","beNext","developpeur-scala-spark_paris","https://www.welcometothejungle.co/companies/benext/jobs/developpeur-scala-spark_paris",True,"Passionné(e) par les écosystèmes de données, vous aimez comprendre les enjeux et besoins de l’entreprise afin de proposer des solutions adaptées et fiables.   Vous connaissez le langage de programmation Scala à travers une expérience professionnelle, un stage, un projet scolaire. Vous avez également travaillé sur des technos <em>Big</em> <em>Data</em> (Spark, Hadoop; Kafka, Hive, Map Reduce...). ","Full-Time","IT / Digital Organization / Management","0.5 years","big data","2019-10-31 15:37:20.362","wttj"
"4d6cbeffccf6127038a076ff4c0df45a","Paris 1er arrondissement","beNext","developpeur-scala-spark_paris","https://www.welcometothejungle.co/companies/benext/jobs/developpeur-scala-spark_paris",True,"Passionné(e) par les écosystèmes de données, vous aimez comprendre les enjeux et besoins de l’entreprise afin de proposer des solutions adaptées et fiables.   Vous connaissez le langage de programmation Scala à travers une expérience professionnelle, un stage, un projet scolaire. Vous avez également travaillé sur des technos <em>Big</em> <em>Data</em> (Spark, Hadoop; Kafka, Hive, Map Reduce...). ","Full-Time","IT / Digital Organization / Management","0.5 years","big data","2019-10-31 15:37:20.362","wttj"
"12c370057b6f1fdc3ccbca5a7b4fd5b3","Neuilly sur seine","Ovalo","developpeur-big-data-h-f_neuilly-sur-seine_OVALO_OXGKayj","https://www.welcometothejungle.co/companies/ovalo/jobs/developpeur-big-data-h-f_neuilly-sur-seine_OVALO_OXGKayj",True,"De formation supérieure (Bac +5) ingénieur, vous justifiez d’au moins 3 ans d'expérience sur des postes similaires. La connaissance des technologies suivantes est indispensable : Java, Shell, SQL, Hadoop, Elastic Search La connaissance des environnements suivants est un plus : méthodologies Agiles et Devops, Puppet, Kafka, Spark, Genesys, BI SAP Business Object. ","Full-Time","IT / Digital Big Data","0.5 years","big data","2019-10-31 10:00:46.331","wttj"
"67c0eefc56ee466d6a0b400cf29ed0f7","Nanterre","AXA","stage-big-data-engineer-f-h_nanterre","https://www.welcometothejungle.co/companies/axa/jobs/stage-big-data-engineer-f-h_nanterre",True,"<p><span style=""font-size: 10pt;"">Vous êtes en fin d'année d'études d'une formation scientifique (école d'ingénieur, école d'informatique).</span></p> <p><span style=""font-size: 10pt;"">Vos compétences techniques vous permettent d'avoir une première appréhension du domaine <em>Big</em> <em>Data.</em></span></p> <p><span style=""font-size: 10pt;""> </span></p> <p><span style=""font-size: 10pt;""> </span></p> <ul> <li><span style=""font-size: 10pt;"">Bonnes compétences en programmation  sur un ou plusieurs langages (Python, Scala, ..).</span></li> <li><span style=""font-size: 10pt;"">Bonnes connaissances en développement <em>Big</em> <em>Data</em> (pySpark + Hadoop de préférence, mais aussi Hive, Impala, Oozie....).</span></li> <li><span style=""font-size: 10pt;"">Bonne connaissance des cycles de développements &amp; outils associés (Azure DevOps...).</span></li> <li><span style=""font-size: 10pt;""> Ces connaissances supplémentaires seraient un plus : environnement Cloudera, outils de <em>data</em> viz, librairies de Machine Learning, bases de données NoSQL (MongoDB, Hbase, ElasticSearch, Solr…), création d'API.</span></li> </ul>","Internship","Banking FinTech / InsurTech Insurance","0 years","big data","2019-10-24 14:49:49.573","wttj"
"7c459e965f96d7dfb98ba0b5a08a2ce9","Toulouse","Sopra Steria","architecte-big-data-h-f_toulouse_SS_dkJepm7","https://www.welcometothejungle.co/companies/sopra-steria/jobs/architecte-big-data-h-f_toulouse_SS_dkJepm7",True,"<p>Titulaire d'un Bac +5 en informatique, et d'une expérience de 3 à 8 ans, avec des références significatives dans la définition d'architectures et la mise en oeuvre de projets et solutions <em>Big</em> <em>Data</em> chez des clients.<br /><br />Vous êtes reconnu pour votre capacité à animer, à fédérer autour d'une vision, pour votre rigueur, vos capacités d'analyse, de synthèse et d'innovation.<br /><br />A compétences égales, tous nos postes sont ouverts aux personnes en situation de handicap.</p>","Full-Time","Organization / Management","5 years","big data","2019-10-22 13:43:47.044","wttj"
"10d5cd6998c9eb75cc8e8b56b5a0cbf3","Cesson-sévigné","Groupe Capgemini","architecte-big-data-h-f-rennes_cesson-sevigne","https://www.welcometothejungle.co/companies/capgemini/jobs/architecte-big-data-h-f-rennes_cesson-sevigne",True,"Profil

De formation supérieure Bac +4/5 (type Ecole d'ingénieur, école de commerce, universitaire, …), vous :
 - Avez une expérience significative dans un rôle d'Architecte <em>Big</em> <em>Data</em>
 - Appréciez le travail en équipe, êtes volontaire
 - Maîtrisez l'anglais (présentations écrites et orales)
 - Vous êtes curieux et avez une bonne capacité d'adaptation
 - Vous êtes rigoureux

Vous maîtrisez plusieurs technologies :
 •Langages : MapReduce, Spark, …
 • <em>Big</em> <em>data</em>: hadoop et son écosystème, NoSQL (Cassandra, MongoDB, HBase, …) sur des distributions Cloudera ou HortonWorks
 • Search (ElasticSearch, Solr ...)
 • FastData (Complex Event Processing, Stream Processing, In memory Technology ...)","Full-Time","Change Management Strategy IT / Digital Organization / Management","7 years","big data","2019-10-21 14:20:40.334","wttj"
"014c66cdd4de94b673f0f99a625b7a32","Paris","Luko","data-scientist-artificial-intelligence_paris","https://www.welcometothejungle.co/companies/Luko/jobs/data-scientist-artificial-intelligence_paris",False,"**Needed skill**  We use largely Python and all the open source Lib for AI (panda, numpy, Scikit-Learn, TensorFlow, etc).  - You have already work on AI project - You have a good knowledge on <em>data</em> infrastructure - You are a fast learner. - You like to deliver fast on a lot of differents subjects  **Bonus Skills**  - You have an interest in back end and APIs - You have a good developer experience","Full-Time","FinTech / InsurTech Artificial Intelligence / Machine Learning","0.5 years","data engineer","2019-10-21 14:44:08.109","wttj"
"231b1dc4682d8eb8b8931ae70f5c6714","Loudéac","free","Devops - H/F ","https://free.softy.pro/?page=annonce&id=8606",True,NULL,"cdi",NULL,NULL,"devops","2019-08-27 12:35:52","wizbii"
"72c08c19b3a95adb21bd6f6c194897ca","Caen","Sinay","developpeur-big-data_caen","https://www.welcometothejungle.co/companies/sinay/jobs/developpeur-big-data_caen",True,"Issu(e) d'une formation supérieure dans les domaines de l'informatique (école d’ingénieur ou université), tu as minimum 5 ans d’expérience en développement back end avec Java et plus particulièrement Spring Boot Cloud dans une activité ou une startup en forte croissance. Tu as conçu, développé et poussé en production des micro-services (API Rest) avec le frame-work Java Spring Boot. Tu es capable d’appréhender la solution Kafka et maitriser le concept pour créer et gérer un ensemble de connecteurs. Tu as une bonne culture du Software Craftmanship et des méthodes de développement Agile/Scrum, Lean Startup. Tu maîtrises l’intégralité des process de développement produit depuis la spécification jusqu’à la mise en production. Tu es sensible aux problématiques devOps et peux expliquer les mots «TDD», «CI/DC», «Conteneurs» aux <em>Data</em> Scientists et au Commercial autour d’un café. Tu aimes travailler en équipe et partager ton savoir-faire. Une expérience réussie sur le cloud (Google, Amazon ou Azure) est un réel plus.","Full-Time","Big Data SaaS / Cloud Services Artificial Intelligence / Machine Learning","5 years","big data","2019-10-16 10:20:21.621","wttj"
"848dc325b9db348b526ff6e39cb701c5","Labège","FITTINGBOX","stagiaire-big-data-f-h_labege","https://www.welcometothejungle.co/companies/fittingbox/jobs/stagiaire-big-data-f-h_labege",True,"**Ça, c’est vraiment toi** * Formation Bac+3/4 en Business Intelligence ou <em>Big</em> <em>Data</em> (basique) * Les process ETL et éthique des données n’ont pas de secret pour toi (simple) * Tu es déjà familiarisé avec les outils de Business Intelligence et éditeurs de requêtes tels que Tableau et/ou Power Pivot et/ou Power BI (simple) * Tu sais utiliser la suite Office les yeux fermés et les mains attachées (basique)  Trop facile ? Si en plus tu parles Dothraki, Wookie ou Klingon on t'adopte tout de suite ! ","Internship","Connected Objects Fashion","0 years","big data","2019-10-15 16:22:36.386","wttj"
"f35cb0bd0e9974b2ace95b2a81068b1f","Labège","FITTINGBOX","stagiaire-big-data-f-h_labege","https://www.welcometothejungle.co/companies/fittingbox/jobs/stagiaire-big-data-f-h_labege",True,"**Ça, c’est vraiment toi** * Formation Bac+3/4 en Business Intelligence ou <em>Big</em> <em>Data</em> (basique) * Les process ETL et éthique des données n’ont pas de secret pour toi (simple) * Tu es déjà familiarisé avec les outils de Business Intelligence et éditeurs de requêtes tels que Tableau et/ou Power Pivot et/ou Power BI (simple) * Tu sais utiliser la suite Office les yeux fermés et les mains attachées (basique)  Trop facile ? Si en plus tu parles Dothraki, Wookie ou Klingon on t'adopte tout de suite ! ","Internship","Connected Objects Fashion","0 years","big data","2019-10-15 16:22:36.386","wttj"
"82fd6924e514002a196190783117c7fd","Paris","Mirakl","developpeur-big-data-senior_paris","https://www.welcometothejungle.co/companies/mirakl/jobs/developpeur-big-data-senior_paris",True,"* Vous êtes développeur, titulaire d’un diplôme d’ingénieur et/ou d’un master spécialisé en <em>Big</em> <em>Data</em>  * Vous justifiez d'une expérience de 5 ans minimum dans le domaine du <em>data</em> engineering  * Vous avez mis en production avec succès des applications <em>Big</em> <em>Data</em> faisant appel à du Machine Learning, du NLP, du traitement d’images dans des projets d'envergure, à fort volume de données  * Vous maîtrisez les langages Java/Scala et Python, les bases relationnelles et NoSQL, HDFS, Apache Spark avec Scala, au moins une plateforme Cloud (AWS, GCP, Azure)  * Vous justifiez d’une expérience de mise en place d’un datawarehouse  * Vous êtes capable de présenter vos travaux de manière accessible  * Vous faîtes preuve d'un bon relationnel et vous aimez mentorer des collaborateurs  * Vous maîtrisez l'Anglais professionnel.    Les plus pour le poste  * Vous avez des expériences significatives dans le domaine du e-commerce  * Vous utilisez les outils de Machine Learning fournis par les plateformes Cloud  * Vous déployez des applicatifs en environnement Kubernetes    Les technologies  Hadoop, Hive, Apache Spark, Kafka, Cassandra, Python, Scala","Full-Time","SaaS / Cloud Services E-commerce","0 years","big data","2019-10-14 10:43:10.156","wttj"
"3b1688078a3ac8bc05ef439483de7002","Paris","Mirakl","developpeur-big-data-senior_paris","https://www.welcometothejungle.co/companies/mirakl/jobs/developpeur-big-data-senior_paris",True,"* Vous êtes développeur, titulaire d’un diplôme d’ingénieur et/ou d’un master spécialisé en <em>Big</em> <em>Data</em>  * Vous justifiez d'une expérience de 5 ans minimum dans le domaine du <em>data</em> engineering  * Vous avez mis en production avec succès des applications <em>Big</em> <em>Data</em> faisant appel à du Machine Learning, du NLP, du traitement d’images dans des projets d'envergure, à fort volume de données  * Vous maîtrisez les langages Java/Scala et Python, les bases relationnelles et NoSQL, HDFS, Apache Spark avec Scala, au moins une plateforme Cloud (AWS, GCP, Azure)  * Vous justifiez d’une expérience de mise en place d’un datawarehouse  * Vous êtes capable de présenter vos travaux de manière accessible  * Vous faîtes preuve d'un bon relationnel et vous aimez mentorer des collaborateurs  * Vous maîtrisez l'Anglais professionnel.    Les plus pour le poste  * Vous avez des expériences significatives dans le domaine du e-commerce  * Vous utilisez les outils de Machine Learning fournis par les plateformes Cloud  * Vous déployez des applicatifs en environnement Kubernetes    Les technologies  Hadoop, Hive, Apache Spark, Kafka, Cassandra, Python, Scala","Full-Time","SaaS / Cloud Services E-commerce","0 years","big data","2019-10-14 10:43:10.156","wttj"
"82eb59ee0fca4ea7b6bb8a57b32145b3","Paris","Mirakl","developpeur-big-data-senior_paris","https://www.welcometothejungle.co/companies/mirakl/jobs/developpeur-big-data-senior_paris",True,"* Vous êtes développeur, titulaire d’un diplôme d’ingénieur et/ou d’un master spécialisé en <em>Big</em> <em>Data</em>  * Vous justifiez d'une expérience de 5 ans minimum dans le domaine du <em>data</em> engineering  * Vous avez mis en production avec succès des applications <em>Big</em> <em>Data</em> faisant appel à du Machine Learning, du NLP, du traitement d’images dans des projets d'envergure, à fort volume de données  * Vous maîtrisez les langages Java/Scala et Python, les bases relationnelles et NoSQL, HDFS, Apache Spark avec Scala, au moins une plateforme Cloud (AWS, GCP, Azure)  * Vous justifiez d’une expérience de mise en place d’un datawarehouse  * Vous êtes capable de présenter vos travaux de manière accessible  * Vous faîtes preuve d'un bon relationnel et vous aimez mentorer des collaborateurs  * Vous maîtrisez l'Anglais professionnel.    Les plus pour le poste  * Vous avez des expériences significatives dans le domaine du e-commerce  * Vous utilisez les outils de Machine Learning fournis par les plateformes Cloud  * Vous déployez des applicatifs en environnement Kubernetes    Les technologies  Hadoop, Hive, Apache Spark, Kafka, Cassandra, Python, Scala","Full-Time","SaaS / Cloud Services E-commerce","0 years","big data","2019-10-14 10:43:10.156","wttj"
"2ab8ac81bc78af1dcfabfd16b37977bb","Paris","Pricemoov","intern-ui-designer-h-f_paris","https://www.welcometothejungle.co/companies/pricemoov/jobs/intern-ui-designer-h-f_paris",True,"Profil recherché :  - Bac + 4 / Bac + 5 école de design - Master en arts, création et ingénierie numérique ou en design d’interfaces multimédias et internet  Quallités nécessaires :   - Maîtrise de la suite Adobe (Photoshop, Indesign, illustrator…) et Figma - Connaissances en programmation - Sens créatif  - Sens du dialogue et de la négociation","Internship","Big Data SaaS / Cloud Services","0 years","big data","2019-10-28 17:47:07.586","wttj"
"4af373ea9be25284794a6191cb8f7127","Aix-en-provence","Sopra Steria","expert-big-data-sante-social-emploi-aix-en-provence_aix-en-provence_SS_WxXpD2W","https://www.welcometothejungle.co/companies/sopra-steria/jobs/expert-big-data-sante-social-emploi-aix-en-provence_aix-en-provence_SS_WxXpD2W",True,"<p>Diplômé(e) d'un BAC+5 en informatique (école d'ingénieurs ou université), vous disposez d'une première expérience dans le développement sur des environnements <em>Big</em> <em>Data</em> ou êtes passionné(e) par cet environnement technique.<br />Curieux(se) et force de proposition, vous êtes reconnu(e) pour votre écoute, votre rigueur technique, vos capacités rédactionnelles, d'analyse et de synthèse.</p> <p>Vos qualités relationnelles, votre adaptabilité et votre sens du service client sont également des atouts indispensables pour réussir vos missions.</p> <p>A compétences égales, tous nos postes sont ouverts aux personnes en situation de handicap.</p> <p> </p>","Full-Time","Organization / Management","2 years","big data","2019-10-02 14:50:16.455","wttj"
"037dede4677a18a0df7aa681b5ebb0f1","Paris","OCTO Technology","architecte-big-data-f-h_paris","https://www.welcometothejungle.co/companies/octo-technology/jobs/architecte-big-data-f-h_paris",True,"* F/H * De formation supérieure ou équivalente. * Vous possédez une première expérience d’au moins 2 ans acquise au sein d’un cabinet de conseil ou société technologique. * Vous êtes tourné vers les nouvelles technologies et souhaitez découvrir de nouveaux challenges professionnels dans des contextes innovants. * Vous disposez de compétences dans la définition d’architectures <em>Big</em> <em>Data</em> et les technologies <em>Big</em> <em>Data</em> (Hadoop, Kafka, NoSQL…), et développement R / Python. * Vous souhaitez maintenir et développer votre expertise tout en apportant votre vision sur des missions de cadrage et de conseil en décisionnel. * Vous avez de l’écoute et aimez partager. Passionné par les sujets technologiques, vous êtes à l’aise pour conseiller voire challenger les demandes de vos clients, * Vous souhaitez vous confronter et contribuer à une communauté d’experts, pour qui l’évolution des pratiques et l’apprentissage continu font particulièrement sens. * Intervenant dans un contexte international, vous maîtrisez l’anglais à l’écrit comme à l’oral. ","Full-Time","Change Management IT / Digital","1 years","big data","2019-10-02 14:42:06.903","wttj"
"2ee8b6906d8bb489a15584327c29187c","Ile de france","Beezen","consultant-big-data-engineer_ile-de-france","https://www.welcometothejungle.co/companies/beezen/jobs/consultant-big-data-engineer_ile-de-france",True,"Vous disposez d’un profil Ingénieur Informatique (BAC +5). Vous justifiez d’un projet de fin d’études et d’une première expérience minimum.   L’écosystème Hadoop (HDFS, Pig, Hive, Sqoop, Flume,…), Spark, Python ou encore Elasticsearch sont vos technologies de prédilection.  Les langages orientés objet types Java, C++,…et de scripting (python, shell,…) n’ont plus aucun secret pour vous.  Vous utilisez les applications Node.js, les modules NPM et notamment Express.js., Git, SQL et NoSQL.   Vous connaissez le processus de création d'une application web avec une API et savez assurer son hébergement sur un serveur Linux, vous savez utiliser un Framework Javascript tel que Angular, BackBone, Ember ou React pour créer une application Web interactive en Javascript communiquant avec une application server, connaissance du scripting Shell et Python est un plus.  **Le petit + qui fera la différence : Vous avez déjà programmé en Scala ou travaillé sur des algorithmes de Machine Learning.**","Full-Time","IT / Digital","0.5 years","big data","2019-09-30 16:43:18.747","wttj"
"60520db5a6c7d7d13f3fc8cfa8ee1aa7","La défense","Sopra Steria","architecte-big-data-secteur-energie-h-f_la-defense_SS_Y11pkAx","https://www.welcometothejungle.co/companies/sopra-steria/jobs/architecte-big-data-secteur-energie-h-f_la-defense_SS_Y11pkAx",True,"<p>Titulaire d'un Bac +5 en informatique, et d'une expérience de 3 à 8 ans, avec des références<br />significatives dans la définition d'architectures et la mise en oeuvre de projets et solutions <em>Big</em> <em>Data</em> chez des<br />clients.<br />Vous êtes reconnu pour votre capacité à animer, à fédérer autour d'une vision, pour votre rigueur, vos capacités d'analyse, de synthèse et d'innovation.<br />A compétences égales, tous nos postes sont ouverts aux personnes en situation de handicap.</p>","Full-Time","Organization / Management","5 years","big data","2019-09-20 12:00:19.22","wttj"
"c74f2015a51c15b61034cd9452b9ae6e","Paris","NOVENCIA Group","developpeur-big-data-f-h_paris","https://www.welcometothejungle.co/companies/novencia-group/jobs/developpeur-big-data-f-h_paris",True,"**DE LA TECHNIQUE ET DE LA PERSONNALITÉ**  **Un touche à tout** : possédant des compétences en langage Java, de bonnes capacités de modélisation, une forte appétence pour le <em>Big</em> <em>Data</em> **Fin connaisseur** : <em>data</em> engineer convaincu, très peu de secrets pour les clusters et pour les calculs parallèles **Ambidextre** : beaucoup d’algorithmie à droite, un peu de Finance à gauche **Explorateur** : à l’affût des nouvelles technos et scrute GitHub à la recherche de trésors perdus **Débrouillard(e)** : toujours partant pour relever un nouveau défi !    **AVANCER EN ÉQUIPE**   NOVENCIA, c’est avant tout un projet collectif.  Validation par un pair. Après les formules d’usage du premier entretien, vous rencontrez un de nos consultants lors d’un second échange pour qu’il puisse appréhender votre niveau technique et vous en dire plus sur l’écosystème de NOVENCIA. (C’est souvent là que tout bascule…).  Partage d’expérience. NOVENCIA compte 7 communautés : Partners – Finance/ Prodigi – Agile / Craft / ActiveViam / UX@Scale / <em>Data</em> / GDPR, dont le fonctionnement est indépendant. Dotées de leur propre budget, elles sont libres de récolter et diffuser des informations. L’objectif : encourager la veille technique et l’évolution professionnelle.  Expertise. Meet-up, webinar, articles, vidéos…Au-delà d’un objectif purement professionnel, technique ou fonctionnel, NOVENCIA vous donne la possibilité de vous exprimer. Environ 80 événements annuels sont organisés. Autant d’occasions pour un collaborateur de se dépasser. Crédibilité et notoriété du parcours sont donc au rendez-vous !  Formation sur mesure. NOVENCIA possède son propre centre de formation. Technique ou fonctionnelle, les formations proposées sont, pour la plupart, certifiantes.  Suivi personnalisé. Qu’elle soit personnelle ou professionnelle, votre évolution est notre priorité. C’est pourquoi nous avons créé les Instants RH et Objectifs Carrière. Vous l’avez compris, chez NOVENCIA on ne lâche rien !  Notre objectif commun :  co-construire votre carrière en fonction de vos aspirations et de vos compétences.     *S’engager en faveur du handicap c’est garantir l’égalité des chances dès le recrutement. À compétences égales, nos postes sont ouverts aux personnes en situation de handicap.*","Full-Time","Big Data Software Organization / Management","3 years","big data","2019-09-19 17:21:04.332","wttj"
"04709b45c1a19cfb992bead4b236eb17","Toulouse","Sopra Steria","architecte-big-data-h-f_toulouse","https://www.welcometothejungle.co/companies/sopra-steria/jobs/architecte-big-data-h-f_toulouse",True,"<p>Titulaire d'un Bac +5 en informatique, et d'une expérience de 3 à 8 ans, avec des références significatives dans la définition d'architectures et la mise en oeuvre de projets et solutions <em>Big</em> <em>Data</em> chez des clients.<br /><br />Vous êtes reconnu pour votre capacité à animer, à fédérer autour d'une vision, pour votre rigueur, vos capacités d'analyse, de synthèse et d'innovation.<br /><br />A compétences égales, tous nos postes sont ouverts aux personnes en situation de handicap.</p>","Full-Time","Organization / Management","5 years","big data","2019-09-16 12:00:04.788","wttj"
"054c0918fdac5fda694950110d2d8069","Neuilly-sur-seine","FINAXYS","architecte-big-data_neuilly-sur-seine","https://www.welcometothejungle.co/companies/finaxys/jobs/architecte-big-data_neuilly-sur-seine",True,"- J’ai minimum 1 expérience professionnelle sur un projet d’architecture - Je suis passionné(e) par les données et la manière dont elles sont structurées, je suis autonome sur leur alimentation et la modélisation dans le <em>Data</em> Lake - J'estime que le <em>Big</em> <em>Data</em> est une vraie réponse à des problématiques non résolues jusqu’à maintenant - Je suis Agile (d’esprit aussi) et j’applique les bonnes pratiques de code - J’aime apprendre autant que partager : je fais de la veille et m’intéresse à toutes les évolutions techniques","Full-Time","Banking Insurance Finance","1 years","big data","2019-09-16 11:40:24.398","wttj"
"72cd54b69f37284c8a9fdd72c6851375","Paris","Vestiaire Collective","chef-de-projets-customer-care-h-f_paris","https://www.welcometothejungle.co/companies/vestiaire-collective/jobs/chef-de-projets-customer-care-h-f_paris",True,"**PROFIL :** •	Vous disposez d’au moins 2 ans d’experience en tant que Chef de Projet •	Vous avez déjà travaillé sur un projet de <em>ChatBot</em> •	Vous êtes à l’aise rapidement avec de nouveaux outils  •	Vous être rigoureux, autonome, et persévérant •	Vous êtes à l’aise avec les chiffres     **NOUS VOUS PROPOSONS :** •	De diriger des projets stratégiques pour Vestiaire Collective •	D’intégrer une équipe dynamique en pleine évolution •	L’opportunité de s’investir dans une jeune société française en forte croissance avec une reconnaissance internationale (sélectionnée parmi les entreprises du Next 40).  •	Un poste avec des sujets variés, en contact avec de nombreux interlocuteurs internes et externes •	Un CDD dans le cadre d’un congé maternité, avec possibilité d’évolution en CDI  ","Temporary","Fashion Luxury E-commerce","2 years","chatbot","2019-10-11 12:34:34.703","wttj"
"1165caa9e854dfe0fb4830ec91134e47","Vendôme","orange","Stage - Dév. des traitements de données Big Data F/H ","https://orange.jobs/jobs/offer.do?joid=84713&lang=EN",True,NULL,"cdi",NULL,NULL,"big data","2019-08-22 12:49:12","wizbii"
"772dbcd1a15e6e42854e773b51434ccd","Paris","Natixis","stage-6-mois-data-scientist-chatbot-h-f-paris-75002_paris","https://www.welcometothejungle.co/companies/natixis/jobs/stage-6-mois-data-scientist-chatbot-h-f-paris-75002_paris",True,"Vous & Beyond
Etudiant/e de niveau Bac+5 d'une grande Ecole d'Ingénieur ou équivalent dans une spécialité Data Science, vous avez développé des connaissances solides sur tout ou partie des disciplines suivantes et souhaitez continuer à progresser sur ces sujets :
    * Mathématiques : Statistiques, Mesure, Probabilités, Processus Stochastiques, Séries Temporelles, Théorie des jeux, etc.
    * Machine Learning et Deep Learning : apprentissage supervisé, non supervisé, par renforcement, théorie et implémentations numériques des algorithmes de Machine et Deep Learning (régressions logistiques, arbres de décision, arbres de gradient boosté, réseaux convolutionnels, auto-encoders, Machine de Boltzmann restreinte, etc.)
    * Algorithmie : estimation de la complexité, algorithme d'approximation, algorithmes emblématiques (stable maximal, voyageur de commerce, etc.)
    * Informatique : maîtrise des langages objet (idéalement Python, C++)
    * numpy, scipy, pandas, scikit-learn, xgboost, libsvm, dask, bokeh, graphviz, etc.
    * tensorflows, pytorch, keras, etc.
    * SQL & NoSQL.
    * Pyspark, elasticsearch, etc
And last but not least, you are perfectly fluent in English. Vous disposez de solides aptitudes relationnelles qui vous permettent d'être à l'aise pour travailler en équipe.
La Data Science vous passionne et vous souhaitez rejoindre un environnement dynamique, exigeant et bienveillant.
Vous vous reconnaissez dans ce profil ?
Alors vous êtes fait pour ce job et nous avons besoin de VOUS !
Vous bénéficierez d'un accompagnement dédié pour vous donner toutes les chances de réussir cette nouvelle mission.","Internship","Banking Change Management Insurance","1 years","chatbot","2019-10-31 18:21:40.141","wttj"
"f05ff9eaca8c88d450fe121de71fb4a1","Le plessis-robinson","KLEE GROUP","stage-4-6-mois-implementation-d-une-solution-de-chatbot-sur-la-digital-workplace-de-klee_le-plessis-robinson","https://www.welcometothejungle.co/companies/klee-group/jobs/stage-4-6-mois-implementation-d-une-solution-de-chatbot-sur-la-digital-workplace-de-klee_le-plessis-robinson",True,"* Curiosité * Force de proposition * Bon relationnel * A l'aise avec les nouveaux principes d'échanges numériques","Internship","Change Management Big Data IT / Digital","0 years","chatbot","2019-09-17 18:41:15.102","wttj"
"6fa60c2f6f1a545528b753fb9bb26522","Paris","EASYRECRUE","hr-solutions-specialist_paris","https://www.welcometothejungle.co/companies/easyrecrue/jobs/hr-solutions-specialist_paris",True,"* 3-5 years’ experience in candidate experience (<em>chatbot</em>) or skills management  * Client-facing professionalism * Demonstrated ability and comfort with tackling new problems head-on * Demonstrated ability to work cross-functionally * Hunger to keep learning new things * C1 in French and English  Bonus experience and skills  : * Previous experience with pre-sales or sales enablement: prospect demos, training and coaching sales reps * B2 or higher in Spanish or Italian","Full-Time","SaaS / Cloud Services Recruitment","2 years","chatbot","2019-10-15 11:21:22.41","wttj"
"86efa268e14b2d36899b9b7285627af8","Paris","EASYRECRUE","hr-solutions-specialist_paris","https://www.welcometothejungle.co/companies/easyrecrue/jobs/hr-solutions-specialist_paris",True,"* 3-5 years’ experience in candidate experience (<em>chatbot</em>) or skills management  * Client-facing professionalism * Demonstrated ability and comfort with tackling new problems head-on * Demonstrated ability to work cross-functionally * Hunger to keep learning new things * C1 in French and English  Bonus experience and skills  : * Previous experience with pre-sales or sales enablement: prospect demos, training and coaching sales reps * B2 or higher in Spanish or Italian","Full-Time","SaaS / Cloud Services Recruitment","2 years","chatbot","2019-10-15 11:21:22.41","wttj"
"c1d83b865e079e9bf73f50ab0a74097f","Paris","EASYRECRUE","hr-solutions-specialist_paris","https://www.welcometothejungle.co/companies/easyrecrue/jobs/hr-solutions-specialist_paris",True,"* 3-5 years’ experience in candidate experience (<em>chatbot</em>) or skills management  * Client-facing professionalism * Demonstrated ability and comfort with tackling new problems head-on * Demonstrated ability to work cross-functionally * Hunger to keep learning new things * C1 in French and English  Bonus experience and skills  : * Previous experience with pre-sales or sales enablement: prospect demos, training and coaching sales reps * B2 or higher in Spanish or Italian","Full-Time","SaaS / Cloud Services Recruitment","2 years","chatbot","2019-10-15 11:21:22.41","wttj"
"074d63441400d8fa117cd6fb1c8d76c0","Paris","EASYRECRUE","hr-solutions-specialist_paris","https://www.welcometothejungle.co/companies/easyrecrue/jobs/hr-solutions-specialist_paris",True,"* 3-5 years’ experience in candidate experience (<em>chatbot</em>) or skills management  * Client-facing professionalism * Demonstrated ability and comfort with tackling new problems head-on * Demonstrated ability to work cross-functionally * Hunger to keep learning new things * C1 in French and English  Bonus experience and skills  : * Previous experience with pre-sales or sales enablement: prospect demos, training and coaching sales reps * B2 or higher in Spanish or Italian","Full-Time","SaaS / Cloud Services Recruitment","2 years","chatbot","2019-10-15 11:21:22.41","wttj"
"3555616566c312f41d017b29a7633c91","Paris","EASYRECRUE","hr-solutions-specialist_paris","https://www.welcometothejungle.co/companies/easyrecrue/jobs/hr-solutions-specialist_paris",True,"* 3-5 years’ experience in candidate experience (<em>chatbot</em>) or skills management  * Client-facing professionalism * Demonstrated ability and comfort with tackling new problems head-on * Demonstrated ability to work cross-functionally * Hunger to keep learning new things * C1 in French and English  Bonus experience and skills  : * Previous experience with pre-sales or sales enablement: prospect demos, training and coaching sales reps * B2 or higher in Spanish or Italian","Full-Time","SaaS / Cloud Services Recruitment","2 years","chatbot","2019-10-15 11:21:22.41","wttj"
"265516ebe3e51acf665fc6df19c475de","Paris","Vestiaire Collective","chef-de-projets-customer-care-h-f_paris","https://www.welcometothejungle.co/companies/vestiaire-collective/jobs/chef-de-projets-customer-care-h-f_paris",True,"**PROFIL :** •	Vous disposez d’au moins 2 ans d’experience en tant que Chef de Projet •	Vous avez déjà travaillé sur un projet de <em>ChatBot</em> •	Vous êtes à l’aise rapidement avec de nouveaux outils  •	Vous être rigoureux, autonome, et persévérant •	Vous êtes à l’aise avec les chiffres     **NOUS VOUS PROPOSONS :** •	De diriger des projets stratégiques pour Vestiaire Collective •	D’intégrer une équipe dynamique en pleine évolution •	L’opportunité de s’investir dans une jeune société française en forte croissance avec une reconnaissance internationale (sélectionnée parmi les entreprises du Next 40).  •	Un poste avec des sujets variés, en contact avec de nombreux interlocuteurs internes et externes •	Un CDD dans le cadre d’un congé maternité, avec possibilité d’évolution en CDI  ","Temporary","Fashion Luxury E-commerce","2 years","chatbot","2019-10-11 12:34:34.703","wttj"
"d0f406940f62c30812a22a14dc79361d","Rome","gi-group","NEOLAUREATI/E IN FISICA - STAGE Junior Big Data Analytics ","https://www.gigroup.it/offerte-lavoro-dettaglio/lavoro-roma-neolaureati-e-in-fisica-stage-junior-big-data-analytics/?jobid=1570551870228",True,NULL,NULL,NULL,NULL,"big data","2019-10-19 12:11:42","wizbii"
"c14105d7cf9c0965cf0e44d0abb51fae","Mumbai","bnp-paribas","BOW - Big Data Engineer ","https://bnpparibasgt.taleo.net/careersection/gt/jobdetail.ftl?job=BNP018230&lang=en",True,"

  <b>  Qualifications :  </b>

",NULL,NULL,NULL,"big data","2019-10-19 12:10:53","wizbii"
"01899c9f334a7cc3463fa4aa2f7dd143","Paris","STEM","fullstack-developer-stage_paris","https://www.welcometothejungle.co/companies/STEM/jobs/fullstack-developer-stage_paris",False,"### 🏅Expériences & Compétences:   Tu as déjà: * Acquis de bonnes connaissances en développement (Node JS, Full stack, Type Script, Test Unitaire, CI, Web, Messenger) * Développé un <em>chatbot</em> et acquis de bonnes bases en NLP  ### 🔎Ce qu'on recherche en toi:     * Un côté touche-à-tout (front, back, infra) et tu es capable de trouver des solutions fonctionnelles rapidement. * Un tempérament entrepreneurial et une vision business. * Un fort intérêt pour les nouvelles technologies. * Un esprit curieux, tu aimes apprendre de nouvelles choses et défier l’ordinaire.  ### 🎁Avantages:   * Start-up @ STATION F → Bénéficie d’une multitude de perks et accède aux conférences & évenements au cœur du plus grand incubateur du monde * Défis et opportunités uniques → Travailler sur un assistant intelligent qui sera utilisé par des centaines de milliers de personnes, le tout dans une des industries les plus dynamiques du moment : la fintech  * Flexibilité → Horaires de travail flexibles et un jour de télétravail par semaine  * Incroyable opportunité de logement à *Flatmates* la Residence Station F https://stationf.co/flatmates/ * On te donne la voix → Tu participes aux décisions stratégiques ainsi qu’à la vision   ### *Opportunité d'embauche à la clé, welcome on board ! 🚀 * ","Internship","","0.5 years","chatbot","2019-10-07 19:41:33.127","wttj"
"25c9048419ee185e5be9a84ff28ea29d","Paris","STEM","fullstack-developer-stage_paris","https://www.welcometothejungle.co/companies/STEM/jobs/fullstack-developer-stage_paris",False,"### 🏅Expériences & Compétences:   Tu as déjà: * Acquis de bonnes connaissances en développement (Node JS, Full stack, Type Script, Test Unitaire, CI, Web, Messenger) * Développé un <em>chatbot</em> et acquis de bonnes bases en NLP  ### 🔎Ce qu'on recherche en toi:     * Un côté touche-à-tout (front, back, infra) et tu es capable de trouver des solutions fonctionnelles rapidement. * Un tempérament entrepreneurial et une vision business. * Un fort intérêt pour les nouvelles technologies. * Un esprit curieux, tu aimes apprendre de nouvelles choses et défier l’ordinaire.  ### 🎁Avantages:   * Start-up @ STATION F → Bénéficie d’une multitude de perks et accède aux conférences & évenements au cœur du plus grand incubateur du monde * Défis et opportunités uniques → Travailler sur un assistant intelligent qui sera utilisé par des centaines de milliers de personnes, le tout dans une des industries les plus dynamiques du moment : la fintech  * Flexibilité → Horaires de travail flexibles et un jour de télétravail par semaine  * Incroyable opportunité de logement à *Flatmates* la Residence Station F https://stationf.co/flatmates/ * On te donne la voix → Tu participes aux décisions stratégiques ainsi qu’à la vision   ### *Opportunité d'embauche à la clé, welcome on board ! 🚀 * ","Internship","","0.5 years","chatbot","2019-10-07 19:41:33.127","wttj"
"c53352b4315bfc38ea8e81b148a33780","Paris","Botfuel","content-marketer_paris","https://www.welcometothejungle.co/companies/Botfuel/jobs/content-marketer_paris",False,"##Background: Proven work experience as a Content Writer or similar role in B2B space (0-2 years).  Bonus points for having specialisation of creating content in SaaS, <em>chatbot</em>s and customer service topics Content Portfolio and links to blogs/digital campaigns created (preferable) Degree in Marketing, Communications, Journalism or a related field preferred  ##Skills: Bilingual English / French required Must have excellent written and verbal communication skills and should be able to create numerous results-driven content pieces within reasonably tight timelines. Exceptional research, writing and editing skills, as well as the ability to adapt to the style, tone, and brand voice of our business. Impeccable writing style, perfect grammar, attention to detail Demonstrated interest in SaaS, sales & marketing domains. Knowledge of digital marketing tactics, including SEO, email marketing, LinkedIn and Twitter marketing, web & social media analytics  ##Work Ethic You have strong attention to detail, and are comfortable working inside a fast-paced results-driven work environment. You’re a Self Starter who can drive projects and deliver high-quality results in a timely manner. You demonstrate a positive, can-do attitude. You thrive in a collaborative and transparent environment and can give and take constructive feedback on a consistent basis.","Full-Time","Software Artificial Intelligence / Machine Learning","1 years","chatbot","2019-10-31 11:30:05.604","wttj"
"a3fafd10d5ae803d10c18ec1057e3451","Paris","Botfuel","content-marketer_paris","https://www.welcometothejungle.co/companies/Botfuel/jobs/content-marketer_paris",False,"##Background: Proven work experience as a Content Writer or similar role in B2B space (0-2 years).  Bonus points for having specialisation of creating content in SaaS, <em>chatbot</em>s and customer service topics Content Portfolio and links to blogs/digital campaigns created (preferable) Degree in Marketing, Communications, Journalism or a related field preferred  ##Skills: Bilingual English / French required Must have excellent written and verbal communication skills and should be able to create numerous results-driven content pieces within reasonably tight timelines. Exceptional research, writing and editing skills, as well as the ability to adapt to the style, tone, and brand voice of our business. Impeccable writing style, perfect grammar, attention to detail Demonstrated interest in SaaS, sales & marketing domains. Knowledge of digital marketing tactics, including SEO, email marketing, LinkedIn and Twitter marketing, web & social media analytics  ##Work Ethic You have strong attention to detail, and are comfortable working inside a fast-paced results-driven work environment. You’re a Self Starter who can drive projects and deliver high-quality results in a timely manner. You demonstrate a positive, can-do attitude. You thrive in a collaborative and transparent environment and can give and take constructive feedback on a consistent basis.","Full-Time","Software Artificial Intelligence / Machine Learning","1 years","chatbot","2019-10-31 11:30:05.604","wttj"
"b52fa4301aee4bb0ad88dfb768c458f4","Bordeaux","FieldBox.ai","data-scientist-r-d_bordeaux","https://www.welcometothejungle.co/companies/fieldbox-ai/jobs/data-scientist-r-d_bordeaux",True,"Education: * Master of Science/Engineering degree with taste for research. * Or PhD degree (in that case, please provide PhD defense reports). * Good knowledge of one topic or more in the following list: Applied Mathematics, Statistics, Machine Learning, Optimization, Optimal Transport, Operation Research, Automation, Industrial applications, Image/Signal Processing. * Good knowledge in programming (ideally in Python). * Ability to write a scientific document. * Good level in english. * Use (or willing to use) Git.   Personal qualities: * Autonomous, source of proposals, well organised * Perseverance, scientific curiosity. * Pedagogue, ability to explain complex notions in simple terms. * Enjoy teamwork.  ","Full-Time","IT / Digital Artificial Intelligence / Machine Learning Big Data","0.5 years","data scientist","2019-10-31 14:02:50.026","wttj"
